<?xml version="1.0" encoding="UTF-8" standalone="yes"?>
<eagle version="9.5.1">
<drawing>
<settings>
<setting alwaysvectorfont="no"/>
<setting keepoldvectorfont="yes"/>
<setting verticaltext="up"/>
</settings>
<grid distance="0.1" unitdist="inch" unit="mil" style="lines" multiple="1" display="no" altdistance="0.01" altunitdist="inch" altunit="inch"/>
<layers>
<layer number="1" name="Top" color="4" fill="1" visible="yes" active="yes"/>
<layer number="16" name="Bottom" color="1" fill="1" visible="yes" active="yes"/>
<layer number="17" name="Pads" color="2" fill="1" visible="yes" active="yes"/>
<layer number="18" name="Vias" color="2" fill="1" visible="no" active="yes"/>
<layer number="19" name="Unrouted" color="6" fill="1" visible="no" active="yes"/>
<layer number="20" name="Dimension" color="15" fill="1" visible="yes" active="yes"/>
<layer number="21" name="tPlace" color="7" fill="1" visible="yes" active="yes"/>
<layer number="22" name="bPlace" color="7" fill="1" visible="no" active="yes"/>
<layer number="23" name="tOrigins" color="15" fill="1" visible="yes" active="yes"/>
<layer number="24" name="bOrigins" color="15" fill="1" visible="no" active="yes"/>
<layer number="25" name="tNames" color="7" fill="1" visible="yes" active="yes"/>
<layer number="26" name="bNames" color="7" fill="1" visible="no" active="yes"/>
<layer number="27" name="tValues" color="7" fill="1" visible="yes" active="yes"/>
<layer number="28" name="bValues" color="7" fill="1" visible="no" active="yes"/>
<layer number="29" name="tStop" color="7" fill="3" visible="no" active="yes"/>
<layer number="30" name="bStop" color="7" fill="6" visible="no" active="yes"/>
<layer number="31" name="tCream" color="7" fill="4" visible="no" active="yes"/>
<layer number="32" name="bCream" color="7" fill="5" visible="no" active="yes"/>
<layer number="33" name="tFinish" color="6" fill="3" visible="no" active="yes"/>
<layer number="34" name="bFinish" color="6" fill="6" visible="no" active="yes"/>
<layer number="35" name="tGlue" color="7" fill="4" visible="no" active="yes"/>
<layer number="36" name="bGlue" color="7" fill="5" visible="no" active="yes"/>
<layer number="37" name="tTest" color="7" fill="1" visible="no" active="yes"/>
<layer number="38" name="bTest" color="7" fill="1" visible="no" active="yes"/>
<layer number="39" name="tKeepout" color="4" fill="11" visible="no" active="yes"/>
<layer number="40" name="bKeepout" color="1" fill="11" visible="no" active="yes"/>
<layer number="41" name="tRestrict" color="4" fill="10" visible="no" active="yes"/>
<layer number="42" name="bRestrict" color="1" fill="10" visible="no" active="yes"/>
<layer number="43" name="vRestrict" color="2" fill="10" visible="no" active="yes"/>
<layer number="44" name="Drills" color="7" fill="1" visible="no" active="yes"/>
<layer number="45" name="Holes" color="7" fill="1" visible="no" active="yes"/>
<layer number="46" name="Milling" color="3" fill="1" visible="yes" active="yes"/>
<layer number="47" name="Measures" color="7" fill="1" visible="no" active="yes"/>
<layer number="48" name="Document" color="7" fill="1" visible="no" active="yes"/>
<layer number="49" name="Reference" color="7" fill="1" visible="no" active="yes"/>
<layer number="51" name="tDocu" color="7" fill="1" visible="yes" active="yes"/>
<layer number="52" name="bDocu" color="7" fill="1" visible="no" active="yes"/>
<layer number="91" name="Nets" color="2" fill="1" visible="yes" active="yes"/>
<layer number="92" name="Busses" color="1" fill="1" visible="yes" active="yes"/>
<layer number="93" name="Pins" color="2" fill="1" visible="yes" active="yes"/>
<layer number="94" name="Symbols" color="4" fill="1" visible="yes" active="yes"/>
<layer number="95" name="Names" color="7" fill="1" visible="yes" active="yes"/>
<layer number="96" name="Values" color="7" fill="1" visible="yes" active="yes"/>
<layer number="97" name="Info" color="7" fill="1" visible="yes" active="yes"/>
<layer number="98" name="Guide" color="6" fill="1" visible="yes" active="yes"/>
<layer number="4" name="Route4" color="1" fill="4" visible="no" active="no"/>
<layer number="5" name="Route5" color="4" fill="4" visible="no" active="no"/>
<layer number="6" name="Route6" color="1" fill="8" visible="no" active="no"/>
<layer number="7" name="Route7" color="4" fill="8" visible="no" active="no"/>
<layer number="8" name="Route8" color="1" fill="2" visible="no" active="no"/>
<layer number="9" name="Route9" color="4" fill="2" visible="no" active="no"/>
<layer number="10" name="Route10" color="1" fill="7" visible="no" active="no"/>
<layer number="11" name="Route11" color="4" fill="7" visible="no" active="no"/>
<layer number="12" name="Route12" color="1" fill="5" visible="no" active="no"/>
<layer number="13" name="Route13" color="4" fill="5" visible="no" active="no"/>
<layer number="14" name="Route14" color="1" fill="6" visible="no" active="no"/>
<layer number="15" name="Route15" color="4" fill="6" visible="no" active="no"/>
<layer number="2" name="Route2" color="1" fill="3" visible="no" active="no"/>
<layer number="3" name="Route3" color="4" fill="3" visible="no" active="no"/>
</layers>
<library>
<packages>
<package name="TO_80AE-GE3_VIS" urn="urn:adsk.eagle:footprint:1/1">
<pad name="1" x="0" y="0" drill=".8128" diameter="1.3208" shape="round" rot="R0"/>
<pad name="2" x="2.6" y="0" drill=".8128" diameter="1.3208" shape="round" rot="R0"/>
<pad name="3" x="5.2" y="0" drill=".8128" diameter="1.3208" shape="round" rot="R0"/>
<wire x1="-2.5562" y1="-.0691" x2="-.9907" y2="-.0691" width=".1524" layer="21"/> 
<wire x1="-2.6832" y1="-2.1265" x2="7.8832" y2="-2.1265" width=".1524" layer="21"/> 
<wire x1="7.8832" y1="-2.1265" x2="7.8832" y2="2.8265" width=".1524" layer="21"/> 
<wire x1="7.8832" y1="2.8265" x2="-2.6832" y2="2.8265" width=".1524" layer="21"/> 
<wire x1="-2.6832" y1="2.8265" x2="-2.6832" y2="-2.1265" width=".1524" layer="21"/> 
<wire x1=".9907" y1="-.0691" x2="1.6093" y2="-.0691" width=".1524" layer="21"/> 
<wire x1="3.5907" y1="-.0691" x2="4.2093" y2="-.0691" width=".1524" layer="21"/> 
<wire x1="6.1907" y1="-.0691" x2="7.7562" y2="-.0691" width=".1524" layer="21"/> 
<wire x1="-4.3342" y1="0" x2="-4.5882" y2="0" width=".1524" layer="21" curve="-180"/>
<wire x1="-4.5882" y1="0" x2="-4.3342" y2="0" width=".1524" layer="21" curve="-180"/>
<wire x1="-2.5562" y1="-.1961" x2="7.7562" y2="-.1961" width=".1524" layer="51"/> 
<wire x1="-2.5562" y1="-1.9995" x2="7.7562" y2="-1.9995" width=".1524" layer="51"/> 
<wire x1="7.7562" y1="-1.9995" x2="7.7562" y2="2.6995" width=".1524" layer="51"/> 
<wire x1="7.7562" y1="2.6995" x2="-2.5562" y2="2.6995" width=".1524" layer="51"/> 
<wire x1="-2.5562" y1="2.6995" x2="-2.5562" y2="-1.9995" width=".1524" layer="51"/> 
<wire x1="-2.1752" y1="0" x2="-2.4292" y2="0" width="0" layer="51" curve="-180"/>
<wire x1="-2.4292" y1="0" x2="-2.1752" y2="0" width="0" layer="51" curve="-180"/>
<text x="1.7356" y=".9342" size=".635" layer="51" ratio="4" rot="R0">TAB</text>
<text x="-.6712" y="-.285" size="1.27" layer="25" ratio="6" rot="R0">&gt;Name</text>
<text x=".8712" y="-.285" size="1.27" layer="27" ratio="6" rot="R0">&gt;Value</text>
</package>
</packages>
<symbols>
<symbol name="TRANS_N-MOSFETN" urn="urn:adsk.eagle:symbol:2/1">
<pin name="D" x="15.24" y="17.78" visible="pin" length="short" direction="pas" function="none" swaplevel="0" rot="R270"/>
<pin name="S" x="15.24" y="-12.7" visible="pin" length="short" direction="pas" function="none" swaplevel="0" rot="R90"/>
<pin name="G" x="0" y="0" visible="pin" length="short" direction="pas" function="none" swaplevel="0" rot="R0"/>
<wire x1="2.54" y1="0" x2="4.445" y2="0" width=".2032" layer="94"/> 
<wire x1="12.065" y1="0" x2="12.065" y2="5.08" width=".2032" layer="94"/> 
<wire x1="12.7" y1="1.905" x2="12.7" y2="3.175" width=".2032" layer="94"/> 
<wire x1="12.7" y1="0" x2="12.7" y2="1.27" width=".2032" layer="94"/> 
<wire x1="12.7" y1="3.81" x2="12.7" y2="5.08" width=".2032" layer="94"/> 
<wire x1="13.97" y1="2.54" x2="14.605" y2="2.54" width=".2032" layer="94"/> 
<wire x1="12.7" y1=".635" x2="14.605" y2=".635" width=".2032" layer="94"/> 
<wire x1="14.605" y1="0" x2="14.605" y2="2.54" width=".2032" layer="94"/> 
<wire x1="14.605" y1="0" x2="15.875" y2="0" width=".2032" layer="94"/> 
<wire x1="12.7" y1="4.445" x2="14.605" y2="4.445" width=".2032" layer="94"/> 
<wire x1="15.875" y1="3.175" x2="15.875" y2="5.08" width=".2032" layer="94"/> 
<wire x1="15.875" y1="0" x2="15.875" y2="1.905" width=".2032" layer="94"/> 
<wire x1="16.51" y1="3.175" x2="15.24" y2="3.175" width=".2032" layer="94"/> 
<wire x1="14.605" y1="5.08" x2="15.875" y2="5.08" width=".2032" layer="94"/> 
<wire x1="14.605" y1="4.445" x2="14.605" y2="5.08" width=".2032" layer="94"/> 
<wire x1="4.445" y1="0" x2="12.065" y2="0" width=".1524" layer="94"/> 
<wire x1="15.2654" y1="0" x2="15.24" y2="-10.16" width=".1524" layer="94"/> 
<wire x1="15.24" y1="-5.08" x2="10.16" y2="-5.08" width=".1524" layer="94"/> 
<wire x1="10.16" y1="-5.08" x2="7.62" y2="-5.08" width=".1524" layer="94"/> 
<wire x1="7.62" y1="-5.08" x2="7.62" y2="-3.81" width=".1524" layer="94"/> 
<wire x1="7.62" y1="-3.81" x2="6.35" y2="-3.81" width=".1524" layer="94"/> 
<wire x1="7.62" y1="-3.81" x2="8.89" y2="-3.81" width=".1524" layer="94"/> 
<wire x1="7.62" y1="-3.81" x2="6.35" y2="-2.54" width=".1524" layer="94"/> 
<wire x1="6.35" y1="-2.54" x2="8.89" y2="-2.54" width=".1524" layer="94"/> 
<wire x1="8.89" y1="-2.54" x2="7.62" y2="-3.81" width=".1524" layer="94"/> 
<wire x1="7.62" y1="-2.54" x2="7.62" y2="-1.905" width=".1524" layer="94"/> 
<wire x1="6.35" y1="-1.905" x2="8.89" y2="-1.905" width=".1524" layer="94"/> 
<wire x1="8.89" y1="-1.905" x2="7.62" y2="-.635" width=".1524" layer="94"/> 
<wire x1="7.62" y1="-.635" x2="6.35" y2="-1.905" width=".1524" layer="94"/> 
<wire x1="6.35" y1="-.635" x2="8.89" y2="-.635" width=".1524" layer="94"/> 
<wire x1="7.62" y1="-.635" x2="7.62" y2="0" width=".1524" layer="94"/> 
<wire x1="15.24" y1="15.24" x2="15.2654" y2="5.08" width=".1524" layer="94"/> 
<wire x1="15.2654" y1="5.08" x2="15.2146" y2="5.08" width=".508" layer="94" curve="-180"/>
<wire x1="15.2146" y1="5.08" x2="15.2654" y2="5.08" width=".508" layer="94" curve="-180"/>
<wire x1="15.2654" y1="0" x2="15.2146" y2="0" width=".508" layer="94" curve="-180"/>
<wire x1="15.2146" y1="0" x2="15.2654" y2="0" width=".508" layer="94" curve="-180"/>
<wire x1="14.6304" y1=".635" x2="14.5796" y2=".635" width=".508" layer="94" curve="-180"/>
<wire x1="14.5796" y1=".635" x2="14.6304" y2=".635" width=".508" layer="94" curve="-180"/>
<wire x1="25.4" y1="2.54" x2="2.54" y2="2.54" width=".254" layer="94" curve="-180"/>
<wire x1="2.54" y1="2.54" x2="25.4" y2="2.54" width=".254" layer="94" curve="-180"/>
<polygon width=".0254" layer="94">
<vertex x="13.97" y="3.175"/>
<vertex x="12.7" y="2.54"/>
<vertex x="13.97" y="1.905"/>
</polygon>
<polygon width=".0254" layer="94">
<vertex x="16.51" y="1.905"/>
<vertex x="15.24" y="1.905"/>
<vertex x="15.875" y="3.175"/>
</polygon>
<text x="29.21" y="8.255" size="2.54" layer="95" ratio="10" rot="R0">&gt;Name</text>
<text x="29.21" y="3.81" size="2.54" layer="96" ratio="10" rot="R0">&gt;Value</text>
</symbol>
</symbols>
<devicesets>
<deviceset name="SIHA11N80AE-GE3" prefix="U" urn="urn:adsk.eagle:component:3/1">
<gates>
<gate name="A" symbol="TRANS_N-MOSFETN" x="0" y="0"/>
</gates>
<devices>
<device name="TO_80AE-GE3_VIS" package="TO_80AE-GE3_VIS">
<connects>
<connect gate="A" pin="G" pad="1"/>
<connect gate="A" pin="D" pad="2"/>
<connect gate="A" pin="S" pad="3"/>
</connects>
<technologies>
<technology name="">
<attribute name="Copyright" value="Copyright (C) 2021 Ultra Librarian. All rights reserved." constant="no"/>
<attribute name="Mfr_Name" value="Vishay" constant="no"/>
<attribute name="Manufacturer_Part_Number" value="SIHA11N80AE-GE3" constant="no"/>
<attribute name="Digi-Key_Part_Number_1" value="742-SIHA11N80AE-GE3TR-ND" constant="no"/>
<attribute name="Digi-Key_Part_Number_2" value="742-SIHA11N80AE-GE3CT-ND" constant="no"/>
<attribute name="Digi-Key_Part_Number_3" value="742-SIHA11N80AE-GE3DKR-ND" constant="no"/>
</technology>
</technologies>
</device>
</devices>
</deviceset>
</devicesets>
</library>
</drawing>
</eagle>
