ISO-10303-21;
HEADER;
FILE_DESCRIPTION(('STEP AP214'),'1');
FILE_NAME('DIODE_1N5408G-T_DIO','2021-11-25T22:34:28',(''),(''),'','','');
FILE_SCHEMA(('AUTOMOTIVE_DESIGN'));
ENDSEC;
DATA;
#1=SHAPE_DEFINITION_REPRESENTATION(#2,#3);
#2=PRODUCT_DEFINITION_SHAPE('',$,#4);
#3=SHAPE_REPRESENTATION('',(#71,#127,#350,#732,#19),#11);
#4=PRODUCT_DEFINITION('design','example product_definition',#6,#5);
#5=PRODUCT_DEFINITION_CONTEXT('3D Mechanical Parts',#10,'design');
#6=PRODUCT_DEFINITION_FORMATION('1.0','first version',#8);
#7=APPLICATION_PROTOCOL_DEFINITION('international standard','automotive_design',2003,#10);
#8=PRODUCT('product','part','',(#9));
#9=PRODUCT_CONTEXT('3D Mechanical Parts',#10,'mechanical');
#10=APPLICATION_CONTEXT('Core Data for Automotive Mechanical Design Process');
#11=(GEOMETRIC_REPRESENTATION_CONTEXT(3) GLOBAL_UNCERTAINTY_ASSIGNED_CONTEXT((#12)) GLOBAL_UNIT_ASSIGNED_CONTEXT((#13,#14,#18)) REPRESENTATION_CONTEXT('ID1','3D'));
#12=UNCERTAINTY_MEASURE_WITH_UNIT(LENGTH_MEASURE(1.E-005),#13,'DISTANCE_ACCURACY_VALUE','Maximum model space distance between geometric entities at asserted connectivities');
#13=(LENGTH_UNIT() NAMED_UNIT(*) SI_UNIT(.MILLI.,.METRE.));
#14=(CONVERSION_BASED_UNIT('degree',#16) NAMED_UNIT(#15) PLANE_ANGLE_UNIT());
#15=DIMENSIONAL_EXPONENTS(0.,0.,0.,0.,0.,0.,0.);
#16=MEASURE_WITH_UNIT(PLANE_ANGLE_MEASURE(0.01745329252),#17);
#17=(NAMED_UNIT(*) PLANE_ANGLE_UNIT() SI_UNIT($,.RADIAN.));
#18=(NAMED_UNIT(*) SI_UNIT($,.STERADIAN.) SOLID_ANGLE_UNIT());
#19=AXIS2_PLACEMENT_3D('',#20,#21,#22);
#20=CARTESIAN_POINT('',(0.0,0.0,0.0));
#21=DIRECTION('',(0.0,0.0,1.0));
#22=DIRECTION('',(1.0,0.0,0.0));
#25=MECHANICAL_DESIGN_GEOMETRIC_PRESENTATION_REPRESENTATION($,(#123,#124,#125,#129,#184,#239,#294,#352,#383,#436,#489,#542,#595,#648,#701,#734,#765,#818,#871,#924,#977,#1030,#1083),#11);
#26=PRODUCT_CATEGORY_RELATIONSHIP('','',#27,#28);
#27=PRODUCT_CATEGORY('part','');
#28=PRODUCT_RELATED_PRODUCT_CATEGORY('','',(#8));
#34=PRESENTATION_STYLE_ASSIGNMENT((#35,#40));
#35=SURFACE_STYLE_USAGE(.BOTH.,#36);
#36=SURFACE_SIDE_STYLE('',(#37));
#37=SURFACE_STYLE_FILL_AREA(#38);
#38=FILL_AREA_STYLE('',(#39));
#39=FILL_AREA_STYLE_COLOUR('',#41);
#40=CURVE_STYLE('',#42,POSITIVE_LENGTH_MEASURE(0.1),#41);
#41=COLOUR_RGB('Aluminum',0.725,0.725,0.725);
#42=DRAUGHTING_PRE_DEFINED_CURVE_FONT('continuous');
#43=PRESENTATION_STYLE_ASSIGNMENT((#44,#49));
#44=SURFACE_STYLE_USAGE(.BOTH.,#45);
#45=SURFACE_SIDE_STYLE('',(#46));
#46=SURFACE_STYLE_FILL_AREA(#47);
#47=FILL_AREA_STYLE('',(#48));
#48=FILL_AREA_STYLE_COLOUR('',#50);
#49=CURVE_STYLE('',#51,POSITIVE_LENGTH_MEASURE(0.1),#50);
#50=COLOUR_RGB('Tan',0.784,0.686,0.51);
#51=DRAUGHTING_PRE_DEFINED_CURVE_FONT('continuous');
#52=PRESENTATION_STYLE_ASSIGNMENT((#53,#58));
#53=SURFACE_STYLE_USAGE(.BOTH.,#54);
#54=SURFACE_SIDE_STYLE('',(#55));
#55=SURFACE_STYLE_FILL_AREA(#56);
#56=FILL_AREA_STYLE('',(#57));
#57=FILL_AREA_STYLE_COLOUR('',#59);
#58=CURVE_STYLE('',#60,POSITIVE_LENGTH_MEASURE(0.1),#59);
#59=COLOUR_RGB('Pin1Axial',0.98,0.706,0.176);
#60=DRAUGHTING_PRE_DEFINED_CURVE_FONT('continuous');
#61=PRESENTATION_STYLE_ASSIGNMENT((#62,#67));
#62=SURFACE_STYLE_USAGE(.BOTH.,#63);
#63=SURFACE_SIDE_STYLE('',(#64));
#64=SURFACE_STYLE_FILL_AREA(#65);
#65=FILL_AREA_STYLE('',(#66));
#66=FILL_AREA_STYLE_COLOUR('',#68);
#67=CURVE_STYLE('',#69,POSITIVE_LENGTH_MEASURE(0.1),#68);
#68=COLOUR_RGB('HeatTab',0.588,0.588,0.588);
#69=DRAUGHTING_PRE_DEFINED_CURVE_FONT('continuous');
#71=MANIFOLD_SOLID_BREP($,#72);
#72=CLOSED_SHELL('',(#73,#74,#75));
#73=ADVANCED_FACE($,(#79,#78),#96,.T.);
#74=ADVANCED_FACE($,(#80),#76,.F.);
#75=ADVANCED_FACE($,(#81),#77,.T.);
#76=PLANE($,#101);
#77=PLANE($,#102);
#78=FACE_BOUND($,#83,.T.);
#79=FACE_OUTER_BOUND($,#82,.T.);
#80=FACE_OUTER_BOUND($,#84,.T.);
#81=FACE_OUTER_BOUND($,#85,.T.);
#82=EDGE_LOOP($,(#92));
#83=EDGE_LOOP($,(#93));
#84=EDGE_LOOP($,(#94));
#85=EDGE_LOOP($,(#95));
#86=CIRCLE($,#99,2.6543);
#87=CIRCLE($,#100,2.6543);
#88=VERTEX_POINT('',#117);
#89=VERTEX_POINT('',#119);
#90=EDGE_CURVE($,#88,#88,#86,.T.);
#91=EDGE_CURVE($,#89,#89,#87,.T.);
#92=ORIENTED_EDGE($,*,*,#90,.F.);
#93=ORIENTED_EDGE($,*,*,#91,.F.);
#94=ORIENTED_EDGE($,*,*,#91,.T.);
#95=ORIENTED_EDGE($,*,*,#90,.T.);
#96=CYLINDRICAL_SURFACE($,#98,2.6543);
#97=AXIS2_PLACEMENT_3D('placement',#115,#103,#104);
#98=AXIS2_PLACEMENT_3D($,#116,#105,#106);
#99=AXIS2_PLACEMENT_3D($,#118,#107,#108);
#100=AXIS2_PLACEMENT_3D($,#120,#109,#110);
#101=AXIS2_PLACEMENT_3D($,#121,#111,#112);
#102=AXIS2_PLACEMENT_3D($,#122,#113,#114);
#103=DIRECTION('axis',(0.,1.,0.));
#104=DIRECTION('refdir',(0.,0.,1.));
#105=DIRECTION('',(-1.,0.,0.));
#106=DIRECTION('',(0.,0.,1.));
#107=DIRECTION('',(-1.,0.,0.));
#108=DIRECTION('',(0.,0.,1.));
#109=DIRECTION('',(1.,0.,0.));
#110=DIRECTION('',(0.,0.,1.));
#111=DIRECTION('',(-1.,0.,0.));
#112=DIRECTION('',(0.,1.,0.));
#113=DIRECTION('',(-1.,0.,0.));
#114=DIRECTION('',(0.,1.,0.));
#115=CARTESIAN_POINT('',(0.,0.,0.));
#116=CARTESIAN_POINT('',(14.7,0.0,2.654));
#117=CARTESIAN_POINT('',(5.2,0.0,0.0));
#118=CARTESIAN_POINT('',(5.2,0.0,2.654));
#119=CARTESIAN_POINT('',(14.7,0.0,0.0));
#120=CARTESIAN_POINT('',(14.7,0.0,2.654));
#121=CARTESIAN_POINT('',(14.7,0.0,2.654));
#122=CARTESIAN_POINT('',(5.2,0.0,2.654));
#123=STYLED_ITEM('color',(#43),#73);
#124=STYLED_ITEM('color',(#43),#74);
#125=STYLED_ITEM('color',(#43),#75);
#127=MANIFOLD_SOLID_BREP($,#128);
#128=CLOSED_SHELL('',(#130,#185,#240,#295));
#129=STYLED_ITEM($,(#52),#130);
#130=ADVANCED_FACE($,(#160,#136),#131,.T.);
#131=CYLINDRICAL_SURFACE($,#132,2.65684);
#132=AXIS2_PLACEMENT_3D($,#133,#134,#135);
#133=CARTESIAN_POINT('',(6.388,0.0,2.653));
#134=DIRECTION('',(-1.,0.,0.));
#135=DIRECTION('',(0.,0.,-1.));
#136=FACE_BOUND($,#137,.T.);
#137=EDGE_LOOP($,(#138, #149));
#141=CARTESIAN_POINT('',(6.388,0.0,5.31));
#140=VERTEX_POINT('',#141);
#143=CARTESIAN_POINT('',(6.388,0.0,-0.004));
#142=VERTEX_POINT('',#143);
#139=EDGE_CURVE($,#140,#142,#144,.T.);
#144=CIRCLE($,#145,2.65684);
#146=CARTESIAN_POINT('',(6.388,0.0,2.653));
#145=AXIS2_PLACEMENT_3D($,#146,#147,#148);
#147=DIRECTION('',(1.0,0.0,0.0));
#148=DIRECTION('',(0.0,0.0,1.0));
#138=ORIENTED_EDGE('',*,*,#139,.F.);
#150=EDGE_CURVE($,#142,#140,#155,.T.);
#155=CIRCLE($,#156,2.65684);
#156=AXIS2_PLACEMENT_3D($,#146,#158,#159);
#158=DIRECTION('',(1.0,0.0,0.0));
#159=DIRECTION('',(0.0,0.0,1.0));
#149=ORIENTED_EDGE('',*,*,#150,.F.);
#160=FACE_OUTER_BOUND($,#161,.T.);
#161=EDGE_LOOP($,(#162, #173));
#165=CARTESIAN_POINT('',(5.913,0.0,5.31));
#164=VERTEX_POINT('',#165);
#167=CARTESIAN_POINT('',(5.913,0.0,-0.004));
#166=VERTEX_POINT('',#167);
#163=EDGE_CURVE($,#164,#166,#168,.T.);
#168=CIRCLE($,#169,2.65684);
#170=CARTESIAN_POINT('',(5.913,0.0,2.653));
#169=AXIS2_PLACEMENT_3D($,#170,#171,#172);
#171=DIRECTION('',(-1.0,0.0,0.0));
#172=DIRECTION('',(0.0,0.0,-1.0));
#162=ORIENTED_EDGE('',*,*,#163,.F.);
#174=EDGE_CURVE($,#166,#164,#179,.T.);
#179=CIRCLE($,#180,2.65684);
#180=AXIS2_PLACEMENT_3D($,#170,#182,#183);
#182=DIRECTION('',(-1.0,0.0,0.0));
#183=DIRECTION('',(0.0,0.0,-1.0));
#173=ORIENTED_EDGE('',*,*,#174,.F.);
#184=STYLED_ITEM($,(#52),#185);
#185 = ADVANCED_FACE ( '', ( #191, #215 ), #186, .T. ) ;
#186 = PLANE ( '',  #187 ) ;
#187 = AXIS2_PLACEMENT_3D ( '', #188, #189, #190 ) ;
#188 = CARTESIAN_POINT ( '',  ( 6.388,0.0,2.653 ) ) ;
#189 = DIRECTION ( '',  ( 1.0, 0.0, 0.0 ) ) ;
#190 = DIRECTION ( '',  ( 0.0, 0.0, 1.0 ) ) ;
#191 = FACE_OUTER_BOUND ( '', #192, .T. ) ;
#192 = EDGE_LOOP ( '', ( #193, #204 ) ) ;
#193=ORIENTED_EDGE('',*,*,#150,.T.);
#204=ORIENTED_EDGE('',*,*,#139,.T.);
#215 = FACE_BOUND ( '', #216, .T. ) ;
#216 = EDGE_LOOP ( '', ( #217, #228 ) ) ;
#220=CARTESIAN_POINT('',(6.388,0.0,5.307));
#219=VERTEX_POINT('',#220);
#222=CARTESIAN_POINT('',(6.388,0.0,-0.001));
#221=VERTEX_POINT('',#222);
#218=EDGE_CURVE($,#219,#221,#223,.T.);
#223=CIRCLE($,#224,2.6543);
#224=AXIS2_PLACEMENT_3D($,#146,#226,#227);
#226=DIRECTION('',(1.0,0.0,0.0));
#227=DIRECTION('',(0.0,0.0,-1.0));
#217=ORIENTED_EDGE('',*,*,#218,.F.);
#229=EDGE_CURVE($,#221,#219,#234,.T.);
#234=CIRCLE($,#235,2.6543);
#235=AXIS2_PLACEMENT_3D($,#146,#237,#238);
#237=DIRECTION('',(1.0,0.0,0.0));
#238=DIRECTION('',(0.0,0.0,1.0));
#228=ORIENTED_EDGE('',*,*,#229,.F.);
#239=STYLED_ITEM($,(#52),#240);
#240 = ADVANCED_FACE ( '', ( #246, #270 ), #241, .T. ) ;
#241 = PLANE ( '',  #242 ) ;
#242 = AXIS2_PLACEMENT_3D ( '', #243, #244, #245 ) ;
#243 = CARTESIAN_POINT ( '',  ( 5.913,0.0,2.653 ) ) ;
#244 = DIRECTION ( '',  ( -1.0, 0.0, 0.0 ) ) ;
#245 = DIRECTION ( '',  ( 0.0, 0.0, 1.0 ) ) ;
#246 = FACE_OUTER_BOUND ( '', #247, .T. ) ;
#247 = EDGE_LOOP ( '', ( #248, #259 ) ) ;
#248=ORIENTED_EDGE('',*,*,#174,.T.);
#259=ORIENTED_EDGE('',*,*,#163,.T.);
#270 = FACE_BOUND ( '', #271, .T. ) ;
#271 = EDGE_LOOP ( '', ( #272, #283 ) ) ;
#275=CARTESIAN_POINT('',(5.913,0.0,5.307));
#274=VERTEX_POINT('',#275);
#277=CARTESIAN_POINT('',(5.913,0.0,-0.001));
#276=VERTEX_POINT('',#277);
#273=EDGE_CURVE($,#274,#276,#278,.T.);
#278=CIRCLE($,#279,2.6543);
#279=AXIS2_PLACEMENT_3D($,#170,#281,#282);
#281=DIRECTION('',(-1.0,0.0,0.0));
#282=DIRECTION('',(0.0,0.0,-1.0));
#272=ORIENTED_EDGE('',*,*,#273,.F.);
#284=EDGE_CURVE($,#276,#274,#289,.T.);
#289=CIRCLE($,#290,2.6543);
#290=AXIS2_PLACEMENT_3D($,#170,#292,#293);
#292=DIRECTION('',(-1.0,0.0,0.0));
#293=DIRECTION('',(0.0,0.0,1.0));
#283=ORIENTED_EDGE('',*,*,#284,.F.);
#294=STYLED_ITEM($,(#52),#295);
#295=ADVANCED_FACE($,(#325,#301),#296,.F.);
#296=CYLINDRICAL_SURFACE($,#297,2.6543);
#297=AXIS2_PLACEMENT_3D($,#298,#299,#300);
#298=CARTESIAN_POINT('',(6.388,0.0,2.653));
#299=DIRECTION('',(-1.,0.,0.));
#300=DIRECTION('',(0.,0.,-1.));
#301=FACE_BOUND($,#302,.T.);
#302=EDGE_LOOP($,(#303, #314));
#303=ORIENTED_EDGE('',*,*,#229,.T.);
#314=ORIENTED_EDGE('',*,*,#218,.T.);
#325=FACE_OUTER_BOUND($,#326,.T.);
#326=EDGE_LOOP($,(#327, #338));
#327=ORIENTED_EDGE('',*,*,#284,.T.);
#338=ORIENTED_EDGE('',*,*,#273,.T.);
#350=MANIFOLD_SOLID_BREP($,#351);
#351=CLOSED_SHELL('',(#353,#384,#437,#490,#543,#596,#649,#702));
#352=STYLED_ITEM('color',(#34),#353);
#353=ADVANCED_FACE($,(#359),#354,.T.);
#354=PLANE($,#355);
#355=AXIS2_PLACEMENT_3D($,#356,#357,#358);
#356=CARTESIAN_POINT('',(5.2,0.0,2.654));
#357=DIRECTION('',(1.0,0.0,0.0));
#358=DIRECTION('',(0.,1.,0.));
#359=FACE_OUTER_BOUND($,#360,.T.);
#360=EDGE_LOOP($,(#361, #372));
#364=CARTESIAN_POINT('',(5.2,0.0,3.302));
#363=VERTEX_POINT('',#364);
#366=CARTESIAN_POINT('',(5.2,0.0,2.007));
#365=VERTEX_POINT('',#366);
#362=EDGE_CURVE($,#363,#365,#367,.T.);
#367=CIRCLE($,#368,0.6477);
#369=CARTESIAN_POINT('',(5.2,0.0,2.654));
#368=AXIS2_PLACEMENT_3D($,#369,#370,#371);
#370=DIRECTION('',(-1.0,0.0,0.0));
#371=DIRECTION('',(0.0,0.0,1.0));
#361=ORIENTED_EDGE('',*,*,#362,.F.);
#373=EDGE_CURVE($,#365,#363,#378,.T.);
#378=CIRCLE($,#379,0.6477);
#379=AXIS2_PLACEMENT_3D($,#369,#381,#382);
#381=DIRECTION('',(-1.0,0.0,0.0));
#382=DIRECTION('',(0.0,0.0,1.0));
#372=ORIENTED_EDGE('',*,*,#373,.F.);
#383=STYLED_ITEM('color',(#34),#384);
#384=ADVANCED_FACE($,(#390),#385,.T.);
#385=CYLINDRICAL_SURFACE($,#386,0.6477);
#386=AXIS2_PLACEMENT_3D($,#387,#388,#389);
#387=CARTESIAN_POINT('',(2.267,0.0,2.654));
#388=DIRECTION('',(1.0,0.0,0.0));
#389=DIRECTION('',(0.0,-1.0,0.0));
#390=FACE_OUTER_BOUND($,#391,.T.);
#391=EDGE_LOOP($,(#414, #392, #424, #403));
#417=CARTESIAN_POINT('',(2.267,0.0,2.007));
#416=VERTEX_POINT('',#417);
#415=EDGE_CURVE('',#416,#365,#420,.T.);
#420=LINE('',#417,#422);
#422=VECTOR('',#423,2.93325042);
#423=DIRECTION('',(1.0,0.0,0.0));
#414=ORIENTED_EDGE('',*,*,#415,.F.);
#395=CARTESIAN_POINT('',(2.267,0.0,3.302));
#394=VERTEX_POINT('',#395);
#393=EDGE_CURVE($,#394,#416,#398,.T.);
#398=CIRCLE($,#399,0.6477);
#400=CARTESIAN_POINT('',(2.267,0.0,2.654));
#399=AXIS2_PLACEMENT_3D($,#400,#401,#402);
#401=DIRECTION('',(-1.0,0.0,0.0));
#402=DIRECTION('',(0.0,0.0,1.0));
#392=ORIENTED_EDGE('',*,*,#393,.F.);
#425=EDGE_CURVE('',#363,#394,#430,.T.);
#430=LINE('',#364,#432);
#432=VECTOR('',#433,2.93325042);
#433=DIRECTION('',(-1.0,0.0,0.0));
#424=ORIENTED_EDGE('',*,*,#425,.F.);
#403=ORIENTED_EDGE('',*,*,#362,.T.);
#436=STYLED_ITEM('color',(#34),#437);
#437=ADVANCED_FACE($,(#443),#438,.T.);
#438=CYLINDRICAL_SURFACE($,#439,0.6477);
#439=AXIS2_PLACEMENT_3D($,#440,#441,#442);
#440=CARTESIAN_POINT('',(2.267,0.0,2.654));
#441=DIRECTION('',(1.0,0.0,0.0));
#442=DIRECTION('',(0.0,-1.0,0.0));
#443=FACE_OUTER_BOUND($,#444,.T.);
#444=EDGE_LOOP($,(#467, #445, #477, #456));
#467=ORIENTED_EDGE('',*,*,#415,.T.);
#445=ORIENTED_EDGE('',*,*,#373,.T.);
#477=ORIENTED_EDGE('',*,*,#425,.T.);
#457=EDGE_CURVE($,#416,#394,#462,.T.);
#462=CIRCLE($,#463,0.6477);
#463=AXIS2_PLACEMENT_3D($,#400,#465,#466);
#465=DIRECTION('',(-1.0,0.0,0.0));
#466=DIRECTION('',(0.0,0.0,-1.0));
#456=ORIENTED_EDGE('',*,*,#457,.F.);
#489=STYLED_ITEM('color',(#34),#490);
#490 = ADVANCED_FACE ( '', ( #496 ), #491, .T. ) ;
#491 = TOROIDAL_SURFACE ( '', #492, 2.26695, 0.6477 ) ;
#492 = AXIS2_PLACEMENT_3D ( '', #493, #494, #495 ) ;
#493 = CARTESIAN_POINT ( '',  ( 2.267,0.0,0.387 ) ) ;
#494 = DIRECTION ( '',  ( 0.0,1.0,0.0 ) ) ;
#495 = DIRECTION ( '',  ( 0.0000000000000000000, 0.0000000000000000000, -1.000000000000000000 ) ) ;
#496 = FACE_OUTER_BOUND ( '', #497, .T. ) ;
#497 = EDGE_LOOP ( '', ( #498, #509, #520, #531 ) ) ;
#498=ORIENTED_EDGE('',*,*,#393,.T.);
#512=CARTESIAN_POINT('',(0.648,0.0,0.387));
#511=VERTEX_POINT('',#512);
#510=EDGE_CURVE($,#511,#416,#515,.T.);
#515=CIRCLE($,#516,1.61925);
#517=CARTESIAN_POINT('',(2.267,0.0,0.387));
#516=AXIS2_PLACEMENT_3D($,#517,#518,#519);
#518=DIRECTION('',(0.0,1.0,0.0));
#519=DIRECTION('',(-1.0,0.0,0.0));
#509=ORIENTED_EDGE('',*,*,#510,.F.);
#523=CARTESIAN_POINT('',(-0.648,0.0,0.387));
#522=VERTEX_POINT('',#523);
#521=EDGE_CURVE($,#522,#511,#526,.T.);
#526=CIRCLE($,#527,0.6477);
#528=CARTESIAN_POINT('',(0.0,0.0,0.387));
#527=AXIS2_PLACEMENT_3D($,#528,#529,#530);
#529=DIRECTION('',(0.0,0.0,-1.0));
#530=DIRECTION('',(1.0,0.0,0.0));
#520=ORIENTED_EDGE('',*,*,#521,.F.);
#532=EDGE_CURVE($,#394,#522,#537,.T.);
#537=CIRCLE($,#538,2.91465);
#538=AXIS2_PLACEMENT_3D($,#517,#540,#541);
#540=DIRECTION('',(0.0,-1.0,0.0));
#541=DIRECTION('',(-1.0,0.0,0.0));
#531=ORIENTED_EDGE('',*,*,#532,.F.);
#542=STYLED_ITEM('color',(#34),#543);
#543 = ADVANCED_FACE ( '', ( #549 ), #544, .T. ) ;
#544 = TOROIDAL_SURFACE ( '', #545, 2.26695, 0.6477 ) ;
#545 = AXIS2_PLACEMENT_3D ( '', #546, #547, #548 ) ;
#546 = CARTESIAN_POINT ( '',  ( 2.267,0.0,0.387 ) ) ;
#547 = DIRECTION ( '',  ( 0.0,-1.0,0.0 ) ) ;
#548 = DIRECTION ( '',  ( 0.0000000000000000000, 0.0000000000000000000, 1.000000000000000000 ) ) ;
#549 = FACE_OUTER_BOUND ( '', #550, .T. ) ;
#550 = EDGE_LOOP ( '', ( #551, #562, #573, #584 ) ) ;
#552=EDGE_CURVE($,#511,#522,#557,.T.);
#557=CIRCLE($,#558,0.6477);
#558=AXIS2_PLACEMENT_3D($,#528,#560,#561);
#560=DIRECTION('',(0.0,0.0,-1.0));
#561=DIRECTION('',(1.0,0.0,0.0));
#551=ORIENTED_EDGE('',*,*,#552,.F.);
#562=ORIENTED_EDGE('',*,*,#510,.T.);
#573=ORIENTED_EDGE('',*,*,#457,.T.);
#584=ORIENTED_EDGE('',*,*,#532,.T.);
#595=STYLED_ITEM('color',(#34),#596);
#596=ADVANCED_FACE($,(#602),#597,.T.);
#597=CYLINDRICAL_SURFACE($,#598,0.6477);
#598=AXIS2_PLACEMENT_3D($,#599,#600,#601);
#599=CARTESIAN_POINT('',(0.0,0.0,-2.54));
#600=DIRECTION('',(0.0,0.0,1.0));
#601=DIRECTION('',(0.0,-1.0,0.0));
#602=FACE_OUTER_BOUND($,#603,.T.);
#603=EDGE_LOOP($,(#626, #604, #636, #615));
#629=CARTESIAN_POINT('',(0.648,0.0,-2.54));
#628=VERTEX_POINT('',#629);
#627=EDGE_CURVE('',#628,#511,#632,.T.);
#632=LINE('',#629,#634);
#634=VECTOR('',#635,2.92735);
#635=DIRECTION('',(0.0,0.0,1.0));
#626=ORIENTED_EDGE('',*,*,#627,.F.);
#607=CARTESIAN_POINT('',(-0.648,0.0,-2.54));
#606=VERTEX_POINT('',#607);
#605=EDGE_CURVE($,#606,#628,#610,.T.);
#610=CIRCLE($,#611,0.6477);
#612=CARTESIAN_POINT('',(0.0,0.0,-2.54));
#611=AXIS2_PLACEMENT_3D($,#612,#613,#614);
#613=DIRECTION('',(0.0,0.0,-1.0));
#614=DIRECTION('',(-1.0,0.0,0.0));
#604=ORIENTED_EDGE('',*,*,#605,.F.);
#637=EDGE_CURVE('',#522,#606,#642,.T.);
#642=LINE('',#523,#644);
#644=VECTOR('',#645,2.92735);
#645=DIRECTION('',(0.0,0.0,-1.0));
#636=ORIENTED_EDGE('',*,*,#637,.F.);
#615=ORIENTED_EDGE('',*,*,#521,.T.);
#648=STYLED_ITEM('color',(#34),#649);
#649=ADVANCED_FACE($,(#655),#650,.T.);
#650=CYLINDRICAL_SURFACE($,#651,0.6477);
#651=AXIS2_PLACEMENT_3D($,#652,#653,#654);
#652=CARTESIAN_POINT('',(0.0,0.0,-2.54));
#653=DIRECTION('',(0.0,0.0,1.0));
#654=DIRECTION('',(0.0,-1.0,0.0));
#655=FACE_OUTER_BOUND($,#656,.T.);
#656=EDGE_LOOP($,(#679, #657, #689, #668));
#679=ORIENTED_EDGE('',*,*,#637,.T.);
#658=EDGE_CURVE($,#628,#606,#663,.T.);
#663=CIRCLE($,#664,0.6477);
#664=AXIS2_PLACEMENT_3D($,#612,#666,#667);
#666=DIRECTION('',(0.0,0.0,-1.0));
#667=DIRECTION('',(-1.0,0.0,0.0));
#657=ORIENTED_EDGE('',*,*,#658,.F.);
#689=ORIENTED_EDGE('',*,*,#627,.T.);
#668=ORIENTED_EDGE('',*,*,#552,.T.);
#701=STYLED_ITEM('color',(#34),#702);
#702=ADVANCED_FACE($,(#708),#703,.T.);
#703=PLANE($,#704);
#704=AXIS2_PLACEMENT_3D($,#705,#706,#707);
#705=CARTESIAN_POINT('',(0.0,0.0,-2.54));
#706=DIRECTION('',(0.0,0.0,-1.0));
#707=DIRECTION('',(0.,1.,0.));
#708=FACE_OUTER_BOUND($,#709,.T.);
#709=EDGE_LOOP($,(#710, #721));
#710=ORIENTED_EDGE('',*,*,#605,.T.);
#721=ORIENTED_EDGE('',*,*,#658,.T.);
#732=MANIFOLD_SOLID_BREP($,#733);
#733=CLOSED_SHELL('',(#735,#766,#819,#872,#925,#978,#1031,#1084));
#734=STYLED_ITEM('color',(#34),#735);
#735=ADVANCED_FACE($,(#741),#736,.T.);
#736=PLANE($,#737);
#737=AXIS2_PLACEMENT_3D($,#738,#739,#740);
#738=CARTESIAN_POINT('',(14.7,0.0,2.654));
#739=DIRECTION('',(-1.0,0.0,0.0));
#740=DIRECTION('',(0.,1.,0.));
#741=FACE_OUTER_BOUND($,#742,.T.);
#742=EDGE_LOOP($,(#743, #754));
#746=CARTESIAN_POINT('',(14.7,0.0,3.302));
#745=VERTEX_POINT('',#746);
#748=CARTESIAN_POINT('',(14.7,0.0,2.007));
#747=VERTEX_POINT('',#748);
#744=EDGE_CURVE($,#745,#747,#749,.T.);
#749=CIRCLE($,#750,0.6477);
#751=CARTESIAN_POINT('',(14.7,0.0,2.654));
#750=AXIS2_PLACEMENT_3D($,#751,#752,#753);
#752=DIRECTION('',(1.0,0.0,0.0));
#753=DIRECTION('',(0.0,0.0,1.0));
#743=ORIENTED_EDGE('',*,*,#744,.F.);
#755=EDGE_CURVE($,#747,#745,#760,.T.);
#760=CIRCLE($,#761,0.6477);
#761=AXIS2_PLACEMENT_3D($,#751,#763,#764);
#763=DIRECTION('',(1.0,0.0,0.0));
#764=DIRECTION('',(0.0,0.0,1.0));
#754=ORIENTED_EDGE('',*,*,#755,.F.);
#765=STYLED_ITEM('color',(#34),#766);
#766=ADVANCED_FACE($,(#772),#767,.T.);
#767=CYLINDRICAL_SURFACE($,#768,0.6477);
#768=AXIS2_PLACEMENT_3D($,#769,#770,#771);
#769=CARTESIAN_POINT('',(17.633,0.0,2.654));
#770=DIRECTION('',(-1.0,0.0,0.0));
#771=DIRECTION('',(0.0,1.0,0.0));
#772=FACE_OUTER_BOUND($,#773,.T.);
#773=EDGE_LOOP($,(#796, #774, #806, #785));
#799=CARTESIAN_POINT('',(17.633,0.0,2.007));
#798=VERTEX_POINT('',#799);
#797=EDGE_CURVE('',#798,#747,#802,.T.);
#802=LINE('',#799,#804);
#804=VECTOR('',#805,2.93325042);
#805=DIRECTION('',(-1.0,0.0,0.0));
#796=ORIENTED_EDGE('',*,*,#797,.F.);
#777=CARTESIAN_POINT('',(17.633,0.0,3.302));
#776=VERTEX_POINT('',#777);
#775=EDGE_CURVE($,#776,#798,#780,.T.);
#780=CIRCLE($,#781,0.6477);
#782=CARTESIAN_POINT('',(17.633,0.0,2.654));
#781=AXIS2_PLACEMENT_3D($,#782,#783,#784);
#783=DIRECTION('',(1.0,0.0,0.0));
#784=DIRECTION('',(0.0,0.0,1.0));
#774=ORIENTED_EDGE('',*,*,#775,.F.);
#807=EDGE_CURVE('',#745,#776,#812,.T.);
#812=LINE('',#746,#814);
#814=VECTOR('',#815,2.93325042);
#815=DIRECTION('',(1.0,0.0,0.0));
#806=ORIENTED_EDGE('',*,*,#807,.F.);
#785=ORIENTED_EDGE('',*,*,#744,.T.);
#818=STYLED_ITEM('color',(#34),#819);
#819=ADVANCED_FACE($,(#825),#820,.T.);
#820=CYLINDRICAL_SURFACE($,#821,0.6477);
#821=AXIS2_PLACEMENT_3D($,#822,#823,#824);
#822=CARTESIAN_POINT('',(17.633,0.0,2.654));
#823=DIRECTION('',(-1.0,0.0,0.0));
#824=DIRECTION('',(0.0,1.0,0.0));
#825=FACE_OUTER_BOUND($,#826,.T.);
#826=EDGE_LOOP($,(#849, #827, #859, #838));
#849=ORIENTED_EDGE('',*,*,#797,.T.);
#827=ORIENTED_EDGE('',*,*,#755,.T.);
#859=ORIENTED_EDGE('',*,*,#807,.T.);
#839=EDGE_CURVE($,#798,#776,#844,.T.);
#844=CIRCLE($,#845,0.6477);
#845=AXIS2_PLACEMENT_3D($,#782,#847,#848);
#847=DIRECTION('',(1.0,0.0,0.0));
#848=DIRECTION('',(0.0,0.0,-1.0));
#838=ORIENTED_EDGE('',*,*,#839,.F.);
#871=STYLED_ITEM('color',(#34),#872);
#872 = ADVANCED_FACE ( '', ( #878 ), #873, .T. ) ;
#873 = TOROIDAL_SURFACE ( '', #874, 2.26695, 0.6477 ) ;
#874 = AXIS2_PLACEMENT_3D ( '', #875, #876, #877 ) ;
#875 = CARTESIAN_POINT ( '',  ( 17.633,0.0,0.387 ) ) ;
#876 = DIRECTION ( '',  ( 0.0,-1.0,0.0 ) ) ;
#877 = DIRECTION ( '',  ( 0.0000000000000000000, 0.0000000000000000000, -1.000000000000000000 ) ) ;
#878 = FACE_OUTER_BOUND ( '', #879, .T. ) ;
#879 = EDGE_LOOP ( '', ( #880, #891, #902, #913 ) ) ;
#880=ORIENTED_EDGE('',*,*,#775,.T.);
#894=CARTESIAN_POINT('',(19.252,0.0,0.387));
#893=VERTEX_POINT('',#894);
#892=EDGE_CURVE($,#893,#798,#897,.T.);
#897=CIRCLE($,#898,1.61925);
#899=CARTESIAN_POINT('',(17.633,0.0,0.387));
#898=AXIS2_PLACEMENT_3D($,#899,#900,#901);
#900=DIRECTION('',(0.0,-1.0,0.0));
#901=DIRECTION('',(1.0,0.0,0.0));
#891=ORIENTED_EDGE('',*,*,#892,.F.);
#905=CARTESIAN_POINT('',(20.548,0.0,0.387));
#904=VERTEX_POINT('',#905);
#903=EDGE_CURVE($,#904,#893,#908,.T.);
#908=CIRCLE($,#909,0.6477);
#910=CARTESIAN_POINT('',(19.9,0.0,0.387));
#909=AXIS2_PLACEMENT_3D($,#910,#911,#912);
#911=DIRECTION('',(0.0,0.0,-1.0));
#912=DIRECTION('',(-1.0,0.0,0.0));
#902=ORIENTED_EDGE('',*,*,#903,.F.);
#914=EDGE_CURVE($,#776,#904,#919,.T.);
#919=CIRCLE($,#920,2.91465);
#920=AXIS2_PLACEMENT_3D($,#899,#922,#923);
#922=DIRECTION('',(0.0,1.0,0.0));
#923=DIRECTION('',(1.0,0.0,0.0));
#913=ORIENTED_EDGE('',*,*,#914,.F.);
#924=STYLED_ITEM('color',(#34),#925);
#925 = ADVANCED_FACE ( '', ( #931 ), #926, .T. ) ;
#926 = TOROIDAL_SURFACE ( '', #927, 2.26695, 0.6477 ) ;
#927 = AXIS2_PLACEMENT_3D ( '', #928, #929, #930 ) ;
#928 = CARTESIAN_POINT ( '',  ( 17.633,0.0,0.387 ) ) ;
#929 = DIRECTION ( '',  ( 0.0,1.0,0.0 ) ) ;
#930 = DIRECTION ( '',  ( 0.0000000000000000000, 0.0000000000000000000, 1.000000000000000000 ) ) ;
#931 = FACE_OUTER_BOUND ( '', #932, .T. ) ;
#932 = EDGE_LOOP ( '', ( #933, #944, #955, #966 ) ) ;
#934=EDGE_CURVE($,#893,#904,#939,.T.);
#939=CIRCLE($,#940,0.6477);
#940=AXIS2_PLACEMENT_3D($,#910,#942,#943);
#942=DIRECTION('',(0.0,0.0,-1.0));
#943=DIRECTION('',(-1.0,0.0,0.0));
#933=ORIENTED_EDGE('',*,*,#934,.F.);
#944=ORIENTED_EDGE('',*,*,#892,.T.);
#955=ORIENTED_EDGE('',*,*,#839,.T.);
#966=ORIENTED_EDGE('',*,*,#914,.T.);
#977=STYLED_ITEM('color',(#34),#978);
#978=ADVANCED_FACE($,(#984),#979,.T.);
#979=CYLINDRICAL_SURFACE($,#980,0.6477);
#980=AXIS2_PLACEMENT_3D($,#981,#982,#983);
#981=CARTESIAN_POINT('',(19.9,0.0,-2.54));
#982=DIRECTION('',(0.0,0.0,1.0));
#983=DIRECTION('',(0.0,1.0,0.0));
#984=FACE_OUTER_BOUND($,#985,.T.);
#985=EDGE_LOOP($,(#1008, #986, #1018, #997));
#1011=CARTESIAN_POINT('',(19.252,0.0,-2.54));
#1010=VERTEX_POINT('',#1011);
#1009=EDGE_CURVE('',#1010,#893,#1014,.T.);
#1014=LINE('',#1011,#1016);
#1016=VECTOR('',#1017,2.92735);
#1017=DIRECTION('',(0.0,0.0,1.0));
#1008=ORIENTED_EDGE('',*,*,#1009,.F.);
#989=CARTESIAN_POINT('',(20.548,0.0,-2.54));
#988=VERTEX_POINT('',#989);
#987=EDGE_CURVE($,#988,#1010,#992,.T.);
#992=CIRCLE($,#993,0.6477);
#994=CARTESIAN_POINT('',(19.9,0.0,-2.54));
#993=AXIS2_PLACEMENT_3D($,#994,#995,#996);
#995=DIRECTION('',(0.0,0.0,-1.0));
#996=DIRECTION('',(1.0,0.0,0.0));
#986=ORIENTED_EDGE('',*,*,#987,.F.);
#1019=EDGE_CURVE('',#904,#988,#1024,.T.);
#1024=LINE('',#905,#1026);
#1026=VECTOR('',#1027,2.92735);
#1027=DIRECTION('',(0.0,0.0,-1.0));
#1018=ORIENTED_EDGE('',*,*,#1019,.F.);
#997=ORIENTED_EDGE('',*,*,#903,.T.);
#1030=STYLED_ITEM('color',(#34),#1031);
#1031=ADVANCED_FACE($,(#1037),#1032,.T.);
#1032=CYLINDRICAL_SURFACE($,#1033,0.6477);
#1033=AXIS2_PLACEMENT_3D($,#1034,#1035,#1036);
#1034=CARTESIAN_POINT('',(19.9,0.0,-2.54));
#1035=DIRECTION('',(0.0,0.0,1.0));
#1036=DIRECTION('',(0.0,1.0,0.0));
#1037=FACE_OUTER_BOUND($,#1038,.T.);
#1038=EDGE_LOOP($,(#1061, #1039, #1071, #1050));
#1061=ORIENTED_EDGE('',*,*,#1019,.T.);
#1040=EDGE_CURVE($,#1010,#988,#1045,.T.);
#1045=CIRCLE($,#1046,0.6477);
#1046=AXIS2_PLACEMENT_3D($,#994,#1048,#1049);
#1048=DIRECTION('',(0.0,0.0,-1.0));
#1049=DIRECTION('',(1.0,0.0,0.0));
#1039=ORIENTED_EDGE('',*,*,#1040,.F.);
#1071=ORIENTED_EDGE('',*,*,#1009,.T.);
#1050=ORIENTED_EDGE('',*,*,#934,.T.);
#1083=STYLED_ITEM('color',(#34),#1084);
#1084=ADVANCED_FACE($,(#1090),#1085,.T.);
#1085=PLANE($,#1086);
#1086=AXIS2_PLACEMENT_3D($,#1087,#1088,#1089);
#1087=CARTESIAN_POINT('',(19.9,0.0,-2.54));
#1088=DIRECTION('',(0.0,0.0,-1.0));
#1089=DIRECTION('',(0.,1.,0.));
#1090=FACE_OUTER_BOUND($,#1091,.T.);
#1091=EDGE_LOOP($,(#1092, #1103));
#1092=ORIENTED_EDGE('',*,*,#987,.T.);
#1103=ORIENTED_EDGE('',*,*,#1040,.T.);
ENDSEC;
END-ISO-10303-21;
